2018-03-06 15:58:28,462 INFO org.apache.hadoop.hdfs.server.datanode.DataNode: STARTUP_MSG: 
/************************************************************
STARTUP_MSG: Starting DataNode
STARTUP_MSG:   host = EVIRL-003-OK.dsic.cloud/192.168.235.12
STARTUP_MSG:   args = []
STARTUP_MSG:   version = 2.7.3
STARTUP_MSG:   classpath = /labos/alumnos/fcogoar/Temp/BigDataCourse/opt/hadoop/etc/hadoop:/labos/alumnos/fcogoar/Temp/BigDataCourse/opt/hadoop/share/hadoop/common/lib/activation-1.1.jar:/labos/alumnos/fcogoar/Temp/BigDataCourse/opt/hadoop/share/hadoop/common/lib/apacheds-i18n-2.0.0-M15.jar:/labos/alumnos/fcogoar/Temp/BigDataCourse/opt/hadoop/share/hadoop/common/lib/apacheds-kerberos-codec-2.0.0-M15.jar:/labos/alumnos/fcogoar/Temp/BigDataCourse/opt/hadoop/share/hadoop/common/lib/api-asn1-api-1.0.0-M20.jar:/labos/alumnos/fcogoar/Temp/BigDataCourse/opt/hadoop/share/hadoop/common/lib/api-util-1.0.0-M20.jar:/labos/alumnos/fcogoar/Temp/BigDataCourse/opt/hadoop/share/hadoop/common/lib/asm-3.2.jar:/labos/alumnos/fcogoar/Temp/BigDataCourse/opt/hadoop/share/hadoop/common/lib/avro-1.7.4.jar:/labos/alumnos/fcogoar/Temp/BigDataCourse/opt/hadoop/share/hadoop/common/lib/commons-beanutils-1.7.0.jar:/labos/alumnos/fcogoar/Temp/BigDataCourse/opt/hadoop/share/hadoop/common/lib/commons-beanutils-core-1.8.0.jar:/labos/alumnos/fcogoar/Temp/BigDataCourse/opt/hadoop/share/hadoop/common/lib/commons-cli-1.2.jar:/labos/alumnos/fcogoar/Temp/BigDataCourse/opt/hadoop/share/hadoop/common/lib/commons-codec-1.4.jar:/labos/alumnos/fcogoar/Temp/BigDataCourse/opt/hadoop/share/hadoop/common/lib/commons-collections-3.2.2.jar:/labos/alumnos/fcogoar/Temp/BigDataCourse/opt/hadoop/share/hadoop/common/lib/commons-compress-1.4.1.jar:/labos/alumnos/fcogoar/Temp/BigDataCourse/opt/hadoop/share/hadoop/common/lib/commons-configuration-1.6.jar:/labos/alumnos/fcogoar/Temp/BigDataCourse/opt/hadoop/share/hadoop/common/lib/commons-digester-1.8.jar:/labos/alumnos/fcogoar/Temp/BigDataCourse/opt/hadoop/share/hadoop/common/lib/commons-httpclient-3.1.jar:/labos/alumnos/fcogoar/Temp/BigDataCourse/opt/hadoop/share/hadoop/common/lib/commons-io-2.4.jar:/labos/alumnos/fcogoar/Temp/BigDataCourse/opt/hadoop/share/hadoop/common/lib/commons-lang-2.6.jar:/labos/alumnos/fcogoar/Temp/BigDataCourse/opt/hadoop/share/hadoop/common/lib/commons-logging-1.1.3.jar:/labos/alumnos/fcogoar/Temp/BigDataCourse/opt/hadoop/share/hadoop/common/lib/commons-math3-3.1.1.jar:/labos/alumnos/fcogoar/Temp/BigDataCourse/opt/hadoop/share/hadoop/common/lib/commons-net-3.1.jar:/labos/alumnos/fcogoar/Temp/BigDataCourse/opt/hadoop/share/hadoop/common/lib/curator-client-2.7.1.jar:/labos/alumnos/fcogoar/Temp/BigDataCourse/opt/hadoop/share/hadoop/common/lib/curator-framework-2.7.1.jar:/labos/alumnos/fcogoar/Temp/BigDataCourse/opt/hadoop/share/hadoop/common/lib/curator-recipes-2.7.1.jar:/labos/alumnos/fcogoar/Temp/BigDataCourse/opt/hadoop/share/hadoop/common/lib/gson-2.2.4.jar:/labos/alumnos/fcogoar/Temp/BigDataCourse/opt/hadoop/share/hadoop/common/lib/guava-11.0.2.jar:/labos/alumnos/fcogoar/Temp/BigDataCourse/opt/hadoop/share/hadoop/common/lib/hadoop-annotations-2.7.3.jar:/labos/alumnos/fcogoar/Temp/BigDataCourse/opt/hadoop/share/hadoop/common/lib/hadoop-auth-2.7.3.jar:/labos/alumnos/fcogoar/Temp/BigDataCourse/opt/hadoop/share/hadoop/common/lib/hamcrest-core-1.3.jar:/labos/alumnos/fcogoar/Temp/BigDataCourse/opt/hadoop/share/hadoop/common/lib/htrace-core-3.1.0-incubating.jar:/labos/alumnos/fcogoar/Temp/BigDataCourse/opt/hadoop/share/hadoop/common/lib/httpclient-4.2.5.jar:/labos/alumnos/fcogoar/Temp/BigDataCourse/opt/hadoop/share/hadoop/common/lib/httpcore-4.2.5.jar:/labos/alumnos/fcogoar/Temp/BigDataCourse/opt/hadoop/share/hadoop/common/lib/jackson-core-asl-1.9.13.jar:/labos/alumnos/fcogoar/Temp/BigDataCourse/opt/hadoop/share/hadoop/common/lib/jackson-jaxrs-1.9.13.jar:/labos/alumnos/fcogoar/Temp/BigDataCourse/opt/hadoop/share/hadoop/common/lib/jackson-mapper-asl-1.9.13.jar:/labos/alumnos/fcogoar/Temp/BigDataCourse/opt/hadoop/share/hadoop/common/lib/jackson-xc-1.9.13.jar:/labos/alumnos/fcogoar/Temp/BigDataCourse/opt/hadoop/share/hadoop/common/lib/java-xmlbuilder-0.4.jar:/labos/alumnos/fcogoar/Temp/BigDataCourse/opt/hadoop/share/hadoop/common/lib/jaxb-api-2.2.2.jar:/labos/alumnos/fcogoar/Temp/BigDataCourse/opt/hadoop/share/hadoop/common/lib/jaxb-impl-2.2.3-1.jar:/labos/alumnos/fcogoar/Temp/BigDataCourse/opt/hadoop/share/hadoop/common/lib/jersey-core-1.9.jar:/labos/alumnos/fcogoar/Temp/BigDataCourse/opt/hadoop/share/hadoop/common/lib/jersey-json-1.9.jar:/labos/alumnos/fcogoar/Temp/BigDataCourse/opt/hadoop/share/hadoop/common/lib/jersey-server-1.9.jar:/labos/alumnos/fcogoar/Temp/BigDataCourse/opt/hadoop/share/hadoop/common/lib/jets3t-0.9.0.jar:/labos/alumnos/fcogoar/Temp/BigDataCourse/opt/hadoop/share/hadoop/common/lib/jettison-1.1.jar:/labos/alumnos/fcogoar/Temp/BigDataCourse/opt/hadoop/share/hadoop/common/lib/jetty-6.1.26.jar:/labos/alumnos/fcogoar/Temp/BigDataCourse/opt/hadoop/share/hadoop/common/lib/jetty-util-6.1.26.jar:/labos/alumnos/fcogoar/Temp/BigDataCourse/opt/hadoop/share/hadoop/common/lib/jsch-0.1.42.jar:/labos/alumnos/fcogoar/Temp/BigDataCourse/opt/hadoop/share/hadoop/common/lib/jsp-api-2.1.jar:/labos/alumnos/fcogoar/Temp/BigDataCourse/opt/hadoop/share/hadoop/common/lib/jsr305-3.0.0.jar:/labos/alumnos/fcogoar/Temp/BigDataCourse/opt/hadoop/share/hadoop/common/lib/junit-4.11.jar:/labos/alumnos/fcogoar/Temp/BigDataCourse/opt/hadoop/share/hadoop/common/lib/log4j-1.2.17.jar:/labos/alumnos/fcogoar/Temp/BigDataCourse/opt/hadoop/share/hadoop/common/lib/mockito-all-1.8.5.jar:/labos/alumnos/fcogoar/Temp/BigDataCourse/opt/hadoop/share/hadoop/common/lib/netty-3.6.2.Final.jar:/labos/alumnos/fcogoar/Temp/BigDataCourse/opt/hadoop/share/hadoop/common/lib/paranamer-2.3.jar:/labos/alumnos/fcogoar/Temp/BigDataCourse/opt/hadoop/share/hadoop/common/lib/protobuf-java-2.5.0.jar:/labos/alumnos/fcogoar/Temp/BigDataCourse/opt/hadoop/share/hadoop/common/lib/servlet-api-2.5.jar:/labos/alumnos/fcogoar/Temp/BigDataCourse/opt/hadoop/share/hadoop/common/lib/slf4j-api-1.7.10.jar:/labos/alumnos/fcogoar/Temp/BigDataCourse/opt/hadoop/share/hadoop/common/lib/slf4j-log4j12-1.7.10.jar:/labos/alumnos/fcogoar/Temp/BigDataCourse/opt/hadoop/share/hadoop/common/lib/snappy-java-1.0.4.1.jar:/labos/alumnos/fcogoar/Temp/BigDataCourse/opt/hadoop/share/hadoop/common/lib/stax-api-1.0-2.jar:/labos/alumnos/fcogoar/Temp/BigDataCourse/opt/hadoop/share/hadoop/common/lib/xmlenc-0.52.jar:/labos/alumnos/fcogoar/Temp/BigDataCourse/opt/hadoop/share/hadoop/common/lib/xz-1.0.jar:/labos/alumnos/fcogoar/Temp/BigDataCourse/opt/hadoop/share/hadoop/common/lib/zookeeper-3.4.6.jar:/labos/alumnos/fcogoar/Temp/BigDataCourse/opt/hadoop/share/hadoop/common/hadoop-common-2.7.3-tests.jar:/labos/alumnos/fcogoar/Temp/BigDataCourse/opt/hadoop/share/hadoop/common/hadoop-common-2.7.3.jar:/labos/alumnos/fcogoar/Temp/BigDataCourse/opt/hadoop/share/hadoop/common/hadoop-nfs-2.7.3.jar:/labos/alumnos/fcogoar/Temp/BigDataCourse/opt/hadoop/share/hadoop/hdfs:/labos/alumnos/fcogoar/Temp/BigDataCourse/opt/hadoop/share/hadoop/hdfs/lib/asm-3.2.jar:/labos/alumnos/fcogoar/Temp/BigDataCourse/opt/hadoop/share/hadoop/hdfs/lib/commons-cli-1.2.jar:/labos/alumnos/fcogoar/Temp/BigDataCourse/opt/hadoop/share/hadoop/hdfs/lib/commons-codec-1.4.jar:/labos/alumnos/fcogoar/Temp/BigDataCourse/opt/hadoop/share/hadoop/hdfs/lib/commons-daemon-1.0.13.jar:/labos/alumnos/fcogoar/Temp/BigDataCourse/opt/hadoop/share/hadoop/hdfs/lib/commons-io-2.4.jar:/labos/alumnos/fcogoar/Temp/BigDataCourse/opt/hadoop/share/hadoop/hdfs/lib/commons-lang-2.6.jar:/labos/alumnos/fcogoar/Temp/BigDataCourse/opt/hadoop/share/hadoop/hdfs/lib/commons-logging-1.1.3.jar:/labos/alumnos/fcogoar/Temp/BigDataCourse/opt/hadoop/share/hadoop/hdfs/lib/guava-11.0.2.jar:/labos/alumnos/fcogoar/Temp/BigDataCourse/opt/hadoop/share/hadoop/hdfs/lib/htrace-core-3.1.0-incubating.jar:/labos/alumnos/fcogoar/Temp/BigDataCourse/opt/hadoop/share/hadoop/hdfs/lib/jackson-core-asl-1.9.13.jar:/labos/alumnos/fcogoar/Temp/BigDataCourse/opt/hadoop/share/hadoop/hdfs/lib/jackson-mapper-asl-1.9.13.jar:/labos/alumnos/fcogoar/Temp/BigDataCourse/opt/hadoop/share/hadoop/hdfs/lib/jersey-core-1.9.jar:/labos/alumnos/fcogoar/Temp/BigDataCourse/opt/hadoop/share/hadoop/hdfs/lib/jersey-server-1.9.jar:/labos/alumnos/fcogoar/Temp/BigDataCourse/opt/hadoop/share/hadoop/hdfs/lib/jetty-6.1.26.jar:/labos/alumnos/fcogoar/Temp/BigDataCourse/opt/hadoop/share/hadoop/hdfs/lib/jetty-util-6.1.26.jar:/labos/alumnos/fcogoar/Temp/BigDataCourse/opt/hadoop/share/hadoop/hdfs/lib/jsr305-3.0.0.jar:/labos/alumnos/fcogoar/Temp/BigDataCourse/opt/hadoop/share/hadoop/hdfs/lib/leveldbjni-all-1.8.jar:/labos/alumnos/fcogoar/Temp/BigDataCourse/opt/hadoop/share/hadoop/hdfs/lib/log4j-1.2.17.jar:/labos/alumnos/fcogoar/Temp/BigDataCourse/opt/hadoop/share/hadoop/hdfs/lib/netty-3.6.2.Final.jar:/labos/alumnos/fcogoar/Temp/BigDataCourse/opt/hadoop/share/hadoop/hdfs/lib/netty-all-4.0.23.Final.jar:/labos/alumnos/fcogoar/Temp/BigDataCourse/opt/hadoop/share/hadoop/hdfs/lib/protobuf-java-2.5.0.jar:/labos/alumnos/fcogoar/Temp/BigDataCourse/opt/hadoop/share/hadoop/hdfs/lib/servlet-api-2.5.jar:/labos/alumnos/fcogoar/Temp/BigDataCourse/opt/hadoop/share/hadoop/hdfs/lib/xercesImpl-2.9.1.jar:/labos/alumnos/fcogoar/Temp/BigDataCourse/opt/hadoop/share/hadoop/hdfs/lib/xml-apis-1.3.04.jar:/labos/alumnos/fcogoar/Temp/BigDataCourse/opt/hadoop/share/hadoop/hdfs/lib/xmlenc-0.52.jar:/labos/alumnos/fcogoar/Temp/BigDataCourse/opt/hadoop/share/hadoop/hdfs/hadoop-hdfs-2.7.3-tests.jar:/labos/alumnos/fcogoar/Temp/BigDataCourse/opt/hadoop/share/hadoop/hdfs/hadoop-hdfs-2.7.3.jar:/labos/alumnos/fcogoar/Temp/BigDataCourse/opt/hadoop/share/hadoop/hdfs/hadoop-hdfs-nfs-2.7.3.jar:/labos/alumnos/fcogoar/Temp/BigDataCourse/opt/hadoop/share/hadoop/yarn/lib/activation-1.1.jar:/labos/alumnos/fcogoar/Temp/BigDataCourse/opt/hadoop/share/hadoop/yarn/lib/aopalliance-1.0.jar:/labos/alumnos/fcogoar/Temp/BigDataCourse/opt/hadoop/share/hadoop/yarn/lib/asm-3.2.jar:/labos/alumnos/fcogoar/Temp/BigDataCourse/opt/hadoop/share/hadoop/yarn/lib/commons-cli-1.2.jar:/labos/alumnos/fcogoar/Temp/BigDataCourse/opt/hadoop/share/hadoop/yarn/lib/commons-codec-1.4.jar:/labos/alumnos/fcogoar/Temp/BigDataCourse/opt/hadoop/share/hadoop/yarn/lib/commons-collections-3.2.2.jar:/labos/alumnos/fcogoar/Temp/BigDataCourse/opt/hadoop/share/hadoop/yarn/lib/commons-compress-1.4.1.jar:/labos/alumnos/fcogoar/Temp/BigDataCourse/opt/hadoop/share/hadoop/yarn/lib/commons-io-2.4.jar:/labos/alumnos/fcogoar/Temp/BigDataCourse/opt/hadoop/share/hadoop/yarn/lib/commons-lang-2.6.jar:/labos/alumnos/fcogoar/Temp/BigDataCourse/opt/hadoop/share/hadoop/yarn/lib/commons-logging-1.1.3.jar:/labos/alumnos/fcogoar/Temp/BigDataCourse/opt/hadoop/share/hadoop/yarn/lib/guava-11.0.2.jar:/labos/alumnos/fcogoar/Temp/BigDataCourse/opt/hadoop/share/hadoop/yarn/lib/guice-3.0.jar:/labos/alumnos/fcogoar/Temp/BigDataCourse/opt/hadoop/share/hadoop/yarn/lib/guice-servlet-3.0.jar:/labos/alumnos/fcogoar/Temp/BigDataCourse/opt/hadoop/share/hadoop/yarn/lib/jackson-core-asl-1.9.13.jar:/labos/alumnos/fcogoar/Temp/BigDataCourse/opt/hadoop/share/hadoop/yarn/lib/jackson-jaxrs-1.9.13.jar:/labos/alumnos/fcogoar/Temp/BigDataCourse/opt/hadoop/share/hadoop/yarn/lib/jackson-mapper-asl-1.9.13.jar:/labos/alumnos/fcogoar/Temp/BigDataCourse/opt/hadoop/share/hadoop/yarn/lib/jackson-xc-1.9.13.jar:/labos/alumnos/fcogoar/Temp/BigDataCourse/opt/hadoop/share/hadoop/yarn/lib/javax.inject-1.jar:/labos/alumnos/fcogoar/Temp/BigDataCourse/opt/hadoop/share/hadoop/yarn/lib/jaxb-api-2.2.2.jar:/labos/alumnos/fcogoar/Temp/BigDataCourse/opt/hadoop/share/hadoop/yarn/lib/jaxb-impl-2.2.3-1.jar:/labos/alumnos/fcogoar/Temp/BigDataCourse/opt/hadoop/share/hadoop/yarn/lib/jersey-client-1.9.jar:/labos/alumnos/fcogoar/Temp/BigDataCourse/opt/hadoop/share/hadoop/yarn/lib/jersey-core-1.9.jar:/labos/alumnos/fcogoar/Temp/BigDataCourse/opt/hadoop/share/hadoop/yarn/lib/jersey-guice-1.9.jar:/labos/alumnos/fcogoar/Temp/BigDataCourse/opt/hadoop/share/hadoop/yarn/lib/jersey-json-1.9.jar:/labos/alumnos/fcogoar/Temp/BigDataCourse/opt/hadoop/share/hadoop/yarn/lib/jersey-server-1.9.jar:/labos/alumnos/fcogoar/Temp/BigDataCourse/opt/hadoop/share/hadoop/yarn/lib/jettison-1.1.jar:/labos/alumnos/fcogoar/Temp/BigDataCourse/opt/hadoop/share/hadoop/yarn/lib/jetty-6.1.26.jar:/labos/alumnos/fcogoar/Temp/BigDataCourse/opt/hadoop/share/hadoop/yarn/lib/jetty-util-6.1.26.jar:/labos/alumnos/fcogoar/Temp/BigDataCourse/opt/hadoop/share/hadoop/yarn/lib/jsr305-3.0.0.jar:/labos/alumnos/fcogoar/Temp/BigDataCourse/opt/hadoop/share/hadoop/yarn/lib/leveldbjni-all-1.8.jar:/labos/alumnos/fcogoar/Temp/BigDataCourse/opt/hadoop/share/hadoop/yarn/lib/log4j-1.2.17.jar:/labos/alumnos/fcogoar/Temp/BigDataCourse/opt/hadoop/share/hadoop/yarn/lib/netty-3.6.2.Final.jar:/labos/alumnos/fcogoar/Temp/BigDataCourse/opt/hadoop/share/hadoop/yarn/lib/protobuf-java-2.5.0.jar:/labos/alumnos/fcogoar/Temp/BigDataCourse/opt/hadoop/share/hadoop/yarn/lib/servlet-api-2.5.jar:/labos/alumnos/fcogoar/Temp/BigDataCourse/opt/hadoop/share/hadoop/yarn/lib/stax-api-1.0-2.jar:/labos/alumnos/fcogoar/Temp/BigDataCourse/opt/hadoop/share/hadoop/yarn/lib/xz-1.0.jar:/labos/alumnos/fcogoar/Temp/BigDataCourse/opt/hadoop/share/hadoop/yarn/lib/zookeeper-3.4.6-tests.jar:/labos/alumnos/fcogoar/Temp/BigDataCourse/opt/hadoop/share/hadoop/yarn/lib/zookeeper-3.4.6.jar:/labos/alumnos/fcogoar/Temp/BigDataCourse/opt/hadoop/share/hadoop/yarn/hadoop-yarn-api-2.7.3.jar:/labos/alumnos/fcogoar/Temp/BigDataCourse/opt/hadoop/share/hadoop/yarn/hadoop-yarn-applications-distributedshell-2.7.3.jar:/labos/alumnos/fcogoar/Temp/BigDataCourse/opt/hadoop/share/hadoop/yarn/hadoop-yarn-applications-unmanaged-am-launcher-2.7.3.jar:/labos/alumnos/fcogoar/Temp/BigDataCourse/opt/hadoop/share/hadoop/yarn/hadoop-yarn-client-2.7.3.jar:/labos/alumnos/fcogoar/Temp/BigDataCourse/opt/hadoop/share/hadoop/yarn/hadoop-yarn-common-2.7.3.jar:/labos/alumnos/fcogoar/Temp/BigDataCourse/opt/hadoop/share/hadoop/yarn/hadoop-yarn-registry-2.7.3.jar:/labos/alumnos/fcogoar/Temp/BigDataCourse/opt/hadoop/share/hadoop/yarn/hadoop-yarn-server-applicationhistoryservice-2.7.3.jar:/labos/alumnos/fcogoar/Temp/BigDataCourse/opt/hadoop/share/hadoop/yarn/hadoop-yarn-server-common-2.7.3.jar:/labos/alumnos/fcogoar/Temp/BigDataCourse/opt/hadoop/share/hadoop/yarn/hadoop-yarn-server-nodemanager-2.7.3.jar:/labos/alumnos/fcogoar/Temp/BigDataCourse/opt/hadoop/share/hadoop/yarn/hadoop-yarn-server-resourcemanager-2.7.3.jar:/labos/alumnos/fcogoar/Temp/BigDataCourse/opt/hadoop/share/hadoop/yarn/hadoop-yarn-server-sharedcachemanager-2.7.3.jar:/labos/alumnos/fcogoar/Temp/BigDataCourse/opt/hadoop/share/hadoop/yarn/hadoop-yarn-server-tests-2.7.3.jar:/labos/alumnos/fcogoar/Temp/BigDataCourse/opt/hadoop/share/hadoop/yarn/hadoop-yarn-server-web-proxy-2.7.3.jar:/labos/alumnos/fcogoar/Temp/BigDataCourse/opt/hadoop/share/hadoop/mapreduce/lib/aopalliance-1.0.jar:/labos/alumnos/fcogoar/Temp/BigDataCourse/opt/hadoop/share/hadoop/mapreduce/lib/asm-3.2.jar:/labos/alumnos/fcogoar/Temp/BigDataCourse/opt/hadoop/share/hadoop/mapreduce/lib/avro-1.7.4.jar:/labos/alumnos/fcogoar/Temp/BigDataCourse/opt/hadoop/share/hadoop/mapreduce/lib/commons-compress-1.4.1.jar:/labos/alumnos/fcogoar/Temp/BigDataCourse/opt/hadoop/share/hadoop/mapreduce/lib/commons-io-2.4.jar:/labos/alumnos/fcogoar/Temp/BigDataCourse/opt/hadoop/share/hadoop/mapreduce/lib/guice-3.0.jar:/labos/alumnos/fcogoar/Temp/BigDataCourse/opt/hadoop/share/hadoop/mapreduce/lib/guice-servlet-3.0.jar:/labos/alumnos/fcogoar/Temp/BigDataCourse/opt/hadoop/share/hadoop/mapreduce/lib/hadoop-annotations-2.7.3.jar:/labos/alumnos/fcogoar/Temp/BigDataCourse/opt/hadoop/share/hadoop/mapreduce/lib/hamcrest-core-1.3.jar:/labos/alumnos/fcogoar/Temp/BigDataCourse/opt/hadoop/share/hadoop/mapreduce/lib/jackson-core-asl-1.9.13.jar:/labos/alumnos/fcogoar/Temp/BigDataCourse/opt/hadoop/share/hadoop/mapreduce/lib/jackson-mapper-asl-1.9.13.jar:/labos/alumnos/fcogoar/Temp/BigDataCourse/opt/hadoop/share/hadoop/mapreduce/lib/javax.inject-1.jar:/labos/alumnos/fcogoar/Temp/BigDataCourse/opt/hadoop/share/hadoop/mapreduce/lib/jersey-core-1.9.jar:/labos/alumnos/fcogoar/Temp/BigDataCourse/opt/hadoop/share/hadoop/mapreduce/lib/jersey-guice-1.9.jar:/labos/alumnos/fcogoar/Temp/BigDataCourse/opt/hadoop/share/hadoop/mapreduce/lib/jersey-server-1.9.jar:/labos/alumnos/fcogoar/Temp/BigDataCourse/opt/hadoop/share/hadoop/mapreduce/lib/junit-4.11.jar:/labos/alumnos/fcogoar/Temp/BigDataCourse/opt/hadoop/share/hadoop/mapreduce/lib/leveldbjni-all-1.8.jar:/labos/alumnos/fcogoar/Temp/BigDataCourse/opt/hadoop/share/hadoop/mapreduce/lib/log4j-1.2.17.jar:/labos/alumnos/fcogoar/Temp/BigDataCourse/opt/hadoop/share/hadoop/mapreduce/lib/netty-3.6.2.Final.jar:/labos/alumnos/fcogoar/Temp/BigDataCourse/opt/hadoop/share/hadoop/mapreduce/lib/paranamer-2.3.jar:/labos/alumnos/fcogoar/Temp/BigDataCourse/opt/hadoop/share/hadoop/mapreduce/lib/protobuf-java-2.5.0.jar:/labos/alumnos/fcogoar/Temp/BigDataCourse/opt/hadoop/share/hadoop/mapreduce/lib/snappy-java-1.0.4.1.jar:/labos/alumnos/fcogoar/Temp/BigDataCourse/opt/hadoop/share/hadoop/mapreduce/lib/xz-1.0.jar:/labos/alumnos/fcogoar/Temp/BigDataCourse/opt/hadoop/share/hadoop/mapreduce/hadoop-mapreduce-client-app-2.7.3.jar:/labos/alumnos/fcogoar/Temp/BigDataCourse/opt/hadoop/share/hadoop/mapreduce/hadoop-mapreduce-client-common-2.7.3.jar:/labos/alumnos/fcogoar/Temp/BigDataCourse/opt/hadoop/share/hadoop/mapreduce/hadoop-mapreduce-client-core-2.7.3.jar:/labos/alumnos/fcogoar/Temp/BigDataCourse/opt/hadoop/share/hadoop/mapreduce/hadoop-mapreduce-client-hs-2.7.3.jar:/labos/alumnos/fcogoar/Temp/BigDataCourse/opt/hadoop/share/hadoop/mapreduce/hadoop-mapreduce-client-hs-plugins-2.7.3.jar:/labos/alumnos/fcogoar/Temp/BigDataCourse/opt/hadoop/share/hadoop/mapreduce/hadoop-mapreduce-client-jobclient-2.7.3-tests.jar:/labos/alumnos/fcogoar/Temp/BigDataCourse/opt/hadoop/share/hadoop/mapreduce/hadoop-mapreduce-client-jobclient-2.7.3.jar:/labos/alumnos/fcogoar/Temp/BigDataCourse/opt/hadoop/share/hadoop/mapreduce/hadoop-mapreduce-client-shuffle-2.7.3.jar:/labos/alumnos/fcogoar/Temp/BigDataCourse/opt/hadoop/share/hadoop/mapreduce/hadoop-mapreduce-examples-2.7.3.jar:/usr/java/latest/jre//lib/tools.jar:/labos/alumnos/fcogoar/Temp/BigDataCourse/opt/hadoop/contrib/capacity-scheduler/*.jar:/labos/alumnos/fcogoar/Temp/BigDataCourse/opt/hadoop/contrib/capacity-scheduler/*.jar:/labos/alumnos/fcogoar/Temp/BigDataCourse/opt/hadoop/contrib/capacity-scheduler/*.jar
STARTUP_MSG:   build = https://git-wip-us.apache.org/repos/asf/hadoop.git -r baa91f7c6bc9cb92be5982de4719c1c8af91ccff; compiled by 'root' on 2016-08-18T01:41Z
STARTUP_MSG:   java = 1.8.0_131
************************************************************/
2018-03-06 15:58:28,473 INFO org.apache.hadoop.hdfs.server.datanode.DataNode: registered UNIX signal handlers for [TERM, HUP, INT]
2018-03-06 15:58:29,263 INFO org.apache.hadoop.metrics2.impl.MetricsConfig: loaded properties from hadoop-metrics2.properties
2018-03-06 15:58:29,344 INFO org.apache.hadoop.metrics2.impl.MetricsSystemImpl: Scheduled snapshot period at 10 second(s).
2018-03-06 15:58:29,344 INFO org.apache.hadoop.metrics2.impl.MetricsSystemImpl: DataNode metrics system started
2018-03-06 15:58:29,350 INFO org.apache.hadoop.hdfs.server.datanode.BlockScanner: Initialized block scanner with targetBytesPerSec 1048576
2018-03-06 15:58:29,354 INFO org.apache.hadoop.hdfs.server.datanode.DataNode: Configured hostname is EVIRL-003-OK.dsic.cloud
2018-03-06 15:58:29,361 INFO org.apache.hadoop.hdfs.server.datanode.DataNode: Starting DataNode with maxLockedMemory = 0
2018-03-06 15:58:29,387 INFO org.apache.hadoop.hdfs.server.datanode.DataNode: Opened streaming server at /0.0.0.0:50010
2018-03-06 15:58:29,389 INFO org.apache.hadoop.hdfs.server.datanode.DataNode: Balancing bandwith is 1048576 bytes/s
2018-03-06 15:58:29,389 INFO org.apache.hadoop.hdfs.server.datanode.DataNode: Number threads for balancing is 5
2018-03-06 15:58:29,479 INFO org.mortbay.log: Logging to org.slf4j.impl.Log4jLoggerAdapter(org.mortbay.log) via org.mortbay.log.Slf4jLog
2018-03-06 15:58:29,491 INFO org.apache.hadoop.security.authentication.server.AuthenticationFilter: Unable to initialize FileSignerSecretProvider, falling back to use random secrets.
2018-03-06 15:58:29,498 INFO org.apache.hadoop.http.HttpRequestLog: Http request log for http.requests.datanode is not defined
2018-03-06 15:58:29,505 INFO org.apache.hadoop.http.HttpServer2: Added global filter 'safety' (class=org.apache.hadoop.http.HttpServer2$QuotingInputFilter)
2018-03-06 15:58:29,507 INFO org.apache.hadoop.http.HttpServer2: Added filter static_user_filter (class=org.apache.hadoop.http.lib.StaticUserWebFilter$StaticUserFilter) to context datanode
2018-03-06 15:58:29,507 INFO org.apache.hadoop.http.HttpServer2: Added filter static_user_filter (class=org.apache.hadoop.http.lib.StaticUserWebFilter$StaticUserFilter) to context static
2018-03-06 15:58:29,507 INFO org.apache.hadoop.http.HttpServer2: Added filter static_user_filter (class=org.apache.hadoop.http.lib.StaticUserWebFilter$StaticUserFilter) to context logs
2018-03-06 15:58:29,524 INFO org.apache.hadoop.http.HttpServer2: Jetty bound to port 38264
2018-03-06 15:58:29,525 INFO org.mortbay.log: jetty-6.1.26
2018-03-06 15:58:29,724 INFO org.mortbay.log: Started HttpServer2$SelectChannelConnectorWithSafeStartup@localhost:38264
2018-03-06 15:58:29,837 INFO org.apache.hadoop.hdfs.server.datanode.web.DatanodeHttpServer: Listening HTTP traffic on /0.0.0.0:50075
2018-03-06 15:58:30,013 INFO org.apache.hadoop.hdfs.server.datanode.DataNode: dnUserName = fcogoar
2018-03-06 15:58:30,013 INFO org.apache.hadoop.hdfs.server.datanode.DataNode: supergroup = supergroup
2018-03-06 15:58:30,062 INFO org.apache.hadoop.ipc.CallQueueManager: Using callQueue class java.util.concurrent.LinkedBlockingQueue
2018-03-06 15:58:30,137 INFO org.apache.hadoop.ipc.Server: Starting Socket Reader #1 for port 50020
2018-03-06 15:58:30,165 INFO org.apache.hadoop.hdfs.server.datanode.DataNode: Opened IPC server at /0.0.0.0:50020
2018-03-06 15:58:30,178 INFO org.apache.hadoop.hdfs.server.datanode.DataNode: Refresh request received for nameservices: null
2018-03-06 15:58:30,196 INFO org.apache.hadoop.hdfs.server.datanode.DataNode: Starting BPOfferServices for nameservices: <default>
2018-03-06 15:58:30,210 INFO org.apache.hadoop.hdfs.server.datanode.DataNode: Block pool <registering> (Datanode Uuid unassigned) service to localhost/127.0.0.1:8020 starting to offer service
2018-03-06 15:58:30,223 INFO org.apache.hadoop.ipc.Server: IPC Server Responder: starting
2018-03-06 15:58:30,224 INFO org.apache.hadoop.ipc.Server: IPC Server listener on 50020: starting
2018-03-06 15:58:30,564 INFO org.apache.hadoop.hdfs.server.common.Storage: Using 1 threads to upgrade data directories (dfs.datanode.parallel.volumes.load.threads.num=1, dataDirs=1)
2018-03-06 15:58:30,573 INFO org.apache.hadoop.hdfs.server.common.Storage: Lock on /labos/alumnos/fcogoar/Temp/BigDataCourse/hdfs/datanode/in_use.lock acquired by nodename 31594@EVIRL-003-OK.dsic.cloud
2018-03-06 15:58:30,574 INFO org.apache.hadoop.hdfs.server.common.Storage: Storage directory /labos/alumnos/fcogoar/Temp/BigDataCourse/hdfs/datanode is not formatted for namespace 1233708794. Formatting...
2018-03-06 15:58:30,575 INFO org.apache.hadoop.hdfs.server.common.Storage: Generated new storageID DS-26924e18-de5b-48df-b0c5-263b0ecbd76a for directory /labos/alumnos/fcogoar/Temp/BigDataCourse/hdfs/datanode
2018-03-06 15:58:30,623 INFO org.apache.hadoop.hdfs.server.common.Storage: Analyzing storage directories for bpid BP-930058081-192.168.235.12-1520348124677
2018-03-06 15:58:30,623 INFO org.apache.hadoop.hdfs.server.common.Storage: Locking is disabled for /labos/alumnos/fcogoar/Temp/BigDataCourse/hdfs/datanode/current/BP-930058081-192.168.235.12-1520348124677
2018-03-06 15:58:30,624 INFO org.apache.hadoop.hdfs.server.common.Storage: Block pool storage directory /labos/alumnos/fcogoar/Temp/BigDataCourse/hdfs/datanode/current/BP-930058081-192.168.235.12-1520348124677 is not formatted for BP-930058081-192.168.235.12-1520348124677. Formatting ...
2018-03-06 15:58:30,624 INFO org.apache.hadoop.hdfs.server.common.Storage: Formatting block pool BP-930058081-192.168.235.12-1520348124677 directory /labos/alumnos/fcogoar/Temp/BigDataCourse/hdfs/datanode/current/BP-930058081-192.168.235.12-1520348124677/current
2018-03-06 15:58:30,627 INFO org.apache.hadoop.hdfs.server.datanode.DataNode: Setting up storage: nsid=1233708794;bpid=BP-930058081-192.168.235.12-1520348124677;lv=-56;nsInfo=lv=-63;cid=CID-c9fae873-892f-4d54-8074-70e51c2d1fc1;nsid=1233708794;c=0;bpid=BP-930058081-192.168.235.12-1520348124677;dnuuid=null
2018-03-06 15:58:30,629 INFO org.apache.hadoop.hdfs.server.datanode.DataNode: Generated and persisted new Datanode UUID 1384e112-d504-4151-9e8d-21a9f7dc615d
2018-03-06 15:58:30,668 INFO org.apache.hadoop.hdfs.server.datanode.fsdataset.impl.FsDatasetImpl: Added new volume: DS-26924e18-de5b-48df-b0c5-263b0ecbd76a
2018-03-06 15:58:30,668 INFO org.apache.hadoop.hdfs.server.datanode.fsdataset.impl.FsDatasetImpl: Added volume - /labos/alumnos/fcogoar/Temp/BigDataCourse/hdfs/datanode/current, StorageType: DISK
2018-03-06 15:58:30,675 INFO org.apache.hadoop.hdfs.server.datanode.fsdataset.impl.FsDatasetImpl: Registered FSDatasetState MBean
2018-03-06 15:58:30,676 INFO org.apache.hadoop.hdfs.server.datanode.fsdataset.impl.FsDatasetImpl: Adding block pool BP-930058081-192.168.235.12-1520348124677
2018-03-06 15:58:30,677 INFO org.apache.hadoop.hdfs.server.datanode.fsdataset.impl.FsDatasetImpl: Scanning block pool BP-930058081-192.168.235.12-1520348124677 on volume /labos/alumnos/fcogoar/Temp/BigDataCourse/hdfs/datanode/current...
2018-03-06 15:58:30,690 INFO org.apache.hadoop.hdfs.server.datanode.fsdataset.impl.FsDatasetImpl: Time taken to scan block pool BP-930058081-192.168.235.12-1520348124677 on /labos/alumnos/fcogoar/Temp/BigDataCourse/hdfs/datanode/current: 13ms
2018-03-06 15:58:30,690 INFO org.apache.hadoop.hdfs.server.datanode.fsdataset.impl.FsDatasetImpl: Total time to scan all replicas for block pool BP-930058081-192.168.235.12-1520348124677: 14ms
2018-03-06 15:58:30,691 INFO org.apache.hadoop.hdfs.server.datanode.fsdataset.impl.FsDatasetImpl: Adding replicas to map for block pool BP-930058081-192.168.235.12-1520348124677 on volume /labos/alumnos/fcogoar/Temp/BigDataCourse/hdfs/datanode/current...
2018-03-06 15:58:30,691 INFO org.apache.hadoop.hdfs.server.datanode.fsdataset.impl.FsDatasetImpl: Time to add replicas to map for block pool BP-930058081-192.168.235.12-1520348124677 on volume /labos/alumnos/fcogoar/Temp/BigDataCourse/hdfs/datanode/current: 0ms
2018-03-06 15:58:30,691 INFO org.apache.hadoop.hdfs.server.datanode.fsdataset.impl.FsDatasetImpl: Total time to add all replicas to map: 1ms
2018-03-06 15:58:30,696 INFO org.apache.hadoop.hdfs.server.datanode.VolumeScanner: Now scanning bpid BP-930058081-192.168.235.12-1520348124677 on volume /labos/alumnos/fcogoar/Temp/BigDataCourse/hdfs/datanode
2018-03-06 15:58:30,697 INFO org.apache.hadoop.hdfs.server.datanode.VolumeScanner: VolumeScanner(/labos/alumnos/fcogoar/Temp/BigDataCourse/hdfs/datanode, DS-26924e18-de5b-48df-b0c5-263b0ecbd76a): finished scanning block pool BP-930058081-192.168.235.12-1520348124677
2018-03-06 15:58:30,698 INFO org.apache.hadoop.hdfs.server.datanode.DirectoryScanner: Periodic Directory Tree Verification scan starting at 1520363576698 with interval 21600000
2018-03-06 15:58:30,701 INFO org.apache.hadoop.hdfs.server.datanode.DataNode: Block pool BP-930058081-192.168.235.12-1520348124677 (Datanode Uuid null) service to localhost/127.0.0.1:8020 beginning handshake with NN
2018-03-06 15:58:30,742 INFO org.apache.hadoop.hdfs.server.datanode.DataNode: Block pool Block pool BP-930058081-192.168.235.12-1520348124677 (Datanode Uuid null) service to localhost/127.0.0.1:8020 successfully registered with NN
2018-03-06 15:58:30,742 INFO org.apache.hadoop.hdfs.server.datanode.DataNode: For namenode localhost/127.0.0.1:8020 using DELETEREPORT_INTERVAL of 300000 msec  BLOCKREPORT_INTERVAL of 21600000msec CACHEREPORT_INTERVAL of 10000msec Initial delay: 0msec; heartBeatInterval=3000
2018-03-06 15:58:30,750 INFO org.apache.hadoop.hdfs.server.datanode.VolumeScanner: VolumeScanner(/labos/alumnos/fcogoar/Temp/BigDataCourse/hdfs/datanode, DS-26924e18-de5b-48df-b0c5-263b0ecbd76a): no suitable block pools found to scan.  Waiting 1814399946 ms.
2018-03-06 15:58:30,835 INFO org.apache.hadoop.hdfs.server.datanode.DataNode: Namenode Block pool BP-930058081-192.168.235.12-1520348124677 (Datanode Uuid 1384e112-d504-4151-9e8d-21a9f7dc615d) service to localhost/127.0.0.1:8020 trying to claim ACTIVE state with txid=1
2018-03-06 15:58:30,835 INFO org.apache.hadoop.hdfs.server.datanode.DataNode: Acknowledging ACTIVE Namenode Block pool BP-930058081-192.168.235.12-1520348124677 (Datanode Uuid 1384e112-d504-4151-9e8d-21a9f7dc615d) service to localhost/127.0.0.1:8020
2018-03-06 15:58:30,897 INFO org.apache.hadoop.hdfs.server.datanode.DataNode: Successfully sent block report 0x63903d852f1a,  containing 1 storage report(s), of which we sent 1. The reports had 0 total blocks and used 1 RPC(s). This took 3 msec to generate and 58 msecs for RPC and NN processing. Got back one command: FinalizeCommand/5.
2018-03-06 15:58:30,897 INFO org.apache.hadoop.hdfs.server.datanode.DataNode: Got finalize command for block pool BP-930058081-192.168.235.12-1520348124677
