Picked up _JAVA_OPTIONS: -Duser.home=/users/depto/proyectandos/sanguix/DiscoW
mar 19, 2017 7:53:59 PM com.sun.jersey.guice.spi.container.GuiceComponentProviderFactory register
INFORMACIÓN: Registering org.apache.hadoop.yarn.server.nodemanager.webapp.NMWebServices as a root resource class
mar 19, 2017 7:53:59 PM com.sun.jersey.guice.spi.container.GuiceComponentProviderFactory register
INFORMACIÓN: Registering org.apache.hadoop.yarn.webapp.GenericExceptionHandler as a provider class
mar 19, 2017 7:53:59 PM com.sun.jersey.guice.spi.container.GuiceComponentProviderFactory register
INFORMACIÓN: Registering org.apache.hadoop.yarn.server.nodemanager.webapp.JAXBContextResolver as a provider class
mar 19, 2017 7:53:59 PM com.sun.jersey.server.impl.application.WebApplicationImpl _initiate
INFORMACIÓN: Initiating Jersey application, version 'Jersey: 1.9 09/02/2011 11:17 AM'
mar 19, 2017 7:53:59 PM com.sun.jersey.guice.spi.container.GuiceComponentProviderFactory getComponentProvider
INFORMACIÓN: Binding org.apache.hadoop.yarn.server.nodemanager.webapp.JAXBContextResolver to GuiceManagedComponentProvider with the scope "Singleton"
mar 19, 2017 7:54:00 PM com.sun.jersey.guice.spi.container.GuiceComponentProviderFactory getComponentProvider
INFORMACIÓN: Binding org.apache.hadoop.yarn.webapp.GenericExceptionHandler to GuiceManagedComponentProvider with the scope "Singleton"
mar 19, 2017 7:54:00 PM com.sun.jersey.guice.spi.container.GuiceComponentProviderFactory getComponentProvider
INFORMACIÓN: Binding org.apache.hadoop.yarn.server.nodemanager.webapp.NMWebServices to GuiceManagedComponentProvider with the scope "Singleton"
