Picked up _JAVA_OPTIONS: -Duser.home=/labos/alumnos/fcogoar/DiscoW
mar 06, 2018 3:58:35 PM com.sun.jersey.guice.spi.container.GuiceComponentProviderFactory register
INFORMACIÓN: Registering org.apache.hadoop.yarn.server.resourcemanager.webapp.JAXBContextResolver as a provider class
mar 06, 2018 3:58:35 PM com.sun.jersey.guice.spi.container.GuiceComponentProviderFactory register
INFORMACIÓN: Registering org.apache.hadoop.yarn.server.resourcemanager.webapp.RMWebServices as a root resource class
mar 06, 2018 3:58:35 PM com.sun.jersey.guice.spi.container.GuiceComponentProviderFactory register
INFORMACIÓN: Registering org.apache.hadoop.yarn.webapp.GenericExceptionHandler as a provider class
mar 06, 2018 3:58:35 PM com.sun.jersey.server.impl.application.WebApplicationImpl _initiate
INFORMACIÓN: Initiating Jersey application, version 'Jersey: 1.9 09/02/2011 11:17 AM'
mar 06, 2018 3:58:35 PM com.sun.jersey.guice.spi.container.GuiceComponentProviderFactory getComponentProvider
INFORMACIÓN: Binding org.apache.hadoop.yarn.server.resourcemanager.webapp.JAXBContextResolver to GuiceManagedComponentProvider with the scope "Singleton"
mar 06, 2018 3:58:35 PM com.sun.jersey.guice.spi.container.GuiceComponentProviderFactory getComponentProvider
INFORMACIÓN: Binding org.apache.hadoop.yarn.webapp.GenericExceptionHandler to GuiceManagedComponentProvider with the scope "Singleton"
mar 06, 2018 3:58:36 PM com.sun.jersey.guice.spi.container.GuiceComponentProviderFactory getComponentProvider
INFORMACIÓN: Binding org.apache.hadoop.yarn.server.resourcemanager.webapp.RMWebServices to GuiceManagedComponentProvider with the scope "Singleton"
